('D:\\python\\dist\\addition_calcul.exe',
 True,
 False,
 False,
 'C:\\Users\\Владелец\\AppData\\Local\\Programs\\Python\\Python310\\lib\\site-packages\\PyInstaller\\bootloader\\images\\icon-console.ico',
 None,
 False,
 False,
 '<?xml version="1.0" encoding="UTF-8" standalone="yes"?><assembly xmlns="urn:schemas-microsoft-com:asm.v1" manifestVersion="1.0"><assemblyIdentity type="win32" name="addition_calcul" processorArchitecture="amd64" version="1.0.0.0"/><trustInfo xmlns="urn:schemas-microsoft-com:asm.v3"><security><requestedPrivileges><requestedExecutionLevel level="asInvoker" uiAccess="false"/></requestedPrivileges></security></trustInfo><dependency><dependentAssembly><assemblyIdentity type="win32" name="Microsoft.Windows.Common-Controls" language="*" processorArchitecture="*" version="6.0.0.0" publicKeyToken="6595b64144ccf1df"/></dependentAssembly></dependency><compatibility xmlns="urn:schemas-microsoft-com:compatibility.v1"><application><supportedOS Id="{e2011457-1546-43c5-a5fe-008deee3d3f0}"/><supportedOS Id="{35138b9a-5d96-4fbd-8e2d-a2440225f93a}"/><supportedOS Id="{4a2f28e3-53b9-4441-ba9c-d69d4a4a6e38}"/><supportedOS Id="{1f676c76-80e1-4239-95bb-83d0f6d0da78}"/><supportedOS Id="{8e0f7a12-bfb3-4fe8-b9a5-48fd50a15a9a}"/></application></compatibility><application xmlns="urn:schemas-microsoft-com:asm.v3"><windowsSettings><longPathAware xmlns="http://schemas.microsoft.com/SMI/2016/WindowsSettings">true</longPathAware></windowsSettings></application></assembly>',
 True,
 True,
 False,
 None,
 None,
 None,
 'D:\\python\\build\\addition_calcul\\addition_calcul.pkg',
 [('PYZ-00.pyz', 'D:\\python\\build\\addition_calcul\\PYZ-00.pyz', 'PYZ'),
  ('struct',
   'C:\\Users\\Владелец\\AppData\\Local\\Programs\\Python\\Python310\\lib\\struct.pyo',
   'PYMODULE'),
  ('pyimod01_os_path',
   'C:\\Users\\Владелец\\AppData\\Local\\Programs\\Python\\Python310\\lib\\site-packages\\PyInstaller\\loader\\pyimod01_os_path.pyc',
   'PYMODULE'),
  ('pyimod02_archive',
   'C:\\Users\\Владелец\\AppData\\Local\\Programs\\Python\\Python310\\lib\\site-packages\\PyInstaller\\loader\\pyimod02_archive.pyc',
   'PYMODULE'),
  ('pyimod03_importers',
   'C:\\Users\\Владелец\\AppData\\Local\\Programs\\Python\\Python310\\lib\\site-packages\\PyInstaller\\loader\\pyimod03_importers.pyc',
   'PYMODULE'),
  ('pyimod04_ctypes',
   'C:\\Users\\Владелец\\AppData\\Local\\Programs\\Python\\Python310\\lib\\site-packages\\PyInstaller\\loader\\pyimod04_ctypes.pyc',
   'PYMODULE'),
  ('pyiboot01_bootstrap',
   'C:\\Users\\Владелец\\AppData\\Local\\Programs\\Python\\Python310\\lib\\site-packages\\PyInstaller\\loader\\pyiboot01_bootstrap.py',
   'PYSOURCE'),
  ('pyi_rth_inspect',
   'C:\\Users\\Владелец\\AppData\\Local\\Programs\\Python\\Python310\\Lib\\site-packages\\PyInstaller\\hooks\\rthooks\\pyi_rth_inspect.py',
   'PYSOURCE'),
  ('pyi_rth_subprocess',
   'C:\\Users\\Владелец\\AppData\\Local\\Programs\\Python\\Python310\\Lib\\site-packages\\PyInstaller\\hooks\\rthooks\\pyi_rth_subprocess.py',
   'PYSOURCE'),
  ('addition_calcul', 'D:\\python\\addition_calcul.py', 'PYSOURCE'),
  ('VCRUNTIME140.dll',
   'C:\\Users\\Владелец\\AppData\\Local\\Programs\\Python\\Python310\\VCRUNTIME140.dll',
   'BINARY'),
  ('python310.dll',
   'C:\\Users\\Владелец\\AppData\\Local\\Programs\\Python\\Python310\\python310.dll',
   'BINARY'),
  ('select',
   'C:\\Users\\Владелец\\AppData\\Local\\Programs\\Python\\Python310\\DLLs\\select.pyd',
   'EXTENSION'),
  ('_decimal',
   'C:\\Users\\Владелец\\AppData\\Local\\Programs\\Python\\Python310\\DLLs\\_decimal.pyd',
   'EXTENSION'),
  ('_hashlib',
   'C:\\Users\\Владелец\\AppData\\Local\\Programs\\Python\\Python310\\DLLs\\_hashlib.pyd',
   'EXTENSION'),
  ('unicodedata',
   'C:\\Users\\Владелец\\AppData\\Local\\Programs\\Python\\Python310\\DLLs\\unicodedata.pyd',
   'EXTENSION'),
  ('_socket',
   'C:\\Users\\Владелец\\AppData\\Local\\Programs\\Python\\Python310\\DLLs\\_socket.pyd',
   'EXTENSION'),
  ('_lzma',
   'C:\\Users\\Владелец\\AppData\\Local\\Programs\\Python\\Python310\\DLLs\\_lzma.pyd',
   'EXTENSION'),
  ('_bz2',
   'C:\\Users\\Владелец\\AppData\\Local\\Programs\\Python\\Python310\\DLLs\\_bz2.pyd',
   'EXTENSION'),
  ('libcrypto-1_1.dll',
   'C:\\Users\\Владелец\\AppData\\Local\\Programs\\Python\\Python310\\DLLs\\libcrypto-1_1.dll',
   'BINARY'),
  ('base_library.zip',
   'D:\\python\\build\\addition_calcul\\base_library.zip',
   'DATA')],
 [],
 False,
 False,
 1656620992,
 [('run.exe',
   'C:\\Users\\Владелец\\AppData\\Local\\Programs\\Python\\Python310\\lib\\site-packages\\PyInstaller\\bootloader\\Windows-64bit\\run.exe',
   'EXECUTABLE')])
