('D:\\python\\build\\addition_calcul\\addition_calcul.pkg',
 {'BINARY': 1,
  'DATA': 1,
  'EXECUTABLE': 1,
  'EXTENSION': 1,
  'PYMODULE': 1,
  'PYSOURCE': 1,
  'PYZ': 0,
  'SPLASH': 1},
 [('PYZ-00.pyz', 'D:\\python\\build\\addition_calcul\\PYZ-00.pyz', 'PYZ'),
  ('struct',
   'C:\\Users\\Владелец\\AppData\\Local\\Programs\\Python\\Python310\\lib\\struct.pyo',
   'PYMODULE'),
  ('pyimod01_os_path',
   'C:\\Users\\Владелец\\AppData\\Local\\Programs\\Python\\Python310\\lib\\site-packages\\PyInstaller\\loader\\pyimod01_os_path.pyc',
   'PYMODULE'),
  ('pyimod02_archive',
   'C:\\Users\\Владелец\\AppData\\Local\\Programs\\Python\\Python310\\lib\\site-packages\\PyInstaller\\loader\\pyimod02_archive.pyc',
   'PYMODULE'),
  ('pyimod03_importers',
   'C:\\Users\\Владелец\\AppData\\Local\\Programs\\Python\\Python310\\lib\\site-packages\\PyInstaller\\loader\\pyimod03_importers.pyc',
   'PYMODULE'),
  ('pyimod04_ctypes',
   'C:\\Users\\Владелец\\AppData\\Local\\Programs\\Python\\Python310\\lib\\site-packages\\PyInstaller\\loader\\pyimod04_ctypes.pyc',
   'PYMODULE'),
  ('pyiboot01_bootstrap',
   'C:\\Users\\Владелец\\AppData\\Local\\Programs\\Python\\Python310\\lib\\site-packages\\PyInstaller\\loader\\pyiboot01_bootstrap.py',
   'PYSOURCE'),
  ('pyi_rth_inspect',
   'C:\\Users\\Владелец\\AppData\\Local\\Programs\\Python\\Python310\\Lib\\site-packages\\PyInstaller\\hooks\\rthooks\\pyi_rth_inspect.py',
   'PYSOURCE'),
  ('pyi_rth_subprocess',
   'C:\\Users\\Владелец\\AppData\\Local\\Programs\\Python\\Python310\\Lib\\site-packages\\PyInstaller\\hooks\\rthooks\\pyi_rth_subprocess.py',
   'PYSOURCE'),
  ('addition_calcul', 'D:\\python\\addition_calcul.py', 'PYSOURCE'),
  ('VCRUNTIME140.dll',
   'C:\\Users\\Владелец\\AppData\\Local\\Programs\\Python\\Python310\\VCRUNTIME140.dll',
   'BINARY'),
  ('python310.dll',
   'C:\\Users\\Владелец\\AppData\\Local\\Programs\\Python\\Python310\\python310.dll',
   'BINARY'),
  ('select',
   'C:\\Users\\Владелец\\AppData\\Local\\Programs\\Python\\Python310\\DLLs\\select.pyd',
   'EXTENSION'),
  ('_decimal',
   'C:\\Users\\Владелец\\AppData\\Local\\Programs\\Python\\Python310\\DLLs\\_decimal.pyd',
   'EXTENSION'),
  ('_hashlib',
   'C:\\Users\\Владелец\\AppData\\Local\\Programs\\Python\\Python310\\DLLs\\_hashlib.pyd',
   'EXTENSION'),
  ('unicodedata',
   'C:\\Users\\Владелец\\AppData\\Local\\Programs\\Python\\Python310\\DLLs\\unicodedata.pyd',
   'EXTENSION'),
  ('_socket',
   'C:\\Users\\Владелец\\AppData\\Local\\Programs\\Python\\Python310\\DLLs\\_socket.pyd',
   'EXTENSION'),
  ('_lzma',
   'C:\\Users\\Владелец\\AppData\\Local\\Programs\\Python\\Python310\\DLLs\\_lzma.pyd',
   'EXTENSION'),
  ('_bz2',
   'C:\\Users\\Владелец\\AppData\\Local\\Programs\\Python\\Python310\\DLLs\\_bz2.pyd',
   'EXTENSION'),
  ('libcrypto-1_1.dll',
   'C:\\Users\\Владелец\\AppData\\Local\\Programs\\Python\\Python310\\DLLs\\libcrypto-1_1.dll',
   'BINARY'),
  ('base_library.zip',
   'D:\\python\\build\\addition_calcul\\base_library.zip',
   'DATA')],
 False,
 False,
 False,
 [],
 None,
 None,
 None)
